[gd_scene load_steps=3 format=2]

[ext_resource path="res://animations/smoke.png" type="Texture" id=1]

[sub_resource type="Animation" id=1]

resource_name = "smoke"
length = 0.4
loop = true
step = 0.1
tracks/0/type = "value"
tracks/0/path = NodePath(".:frame")
tracks/0/interp = 1
tracks/0/loop_wrap = true
tracks/0/imported = false
tracks/0/enabled = true
tracks/0/keys = {
"times": PoolRealArray( 0, 0.1, 0.2, 0.3 ),
"transitions": PoolRealArray( 1, 1, 1, 1 ),
"update": 1,
"values": [ 0, 1, 2, 3 ]
}

[node name="Smoke" type="Sprite" index="0"]

texture = ExtResource( 1 )
hframes = 4
frame = 3
_sections_unfolded = [ "Animation" ]

[node name="AnimationPlayer" type="AnimationPlayer" parent="." index="0"]

root_node = NodePath("..")
autoplay = "smoke"
playback_process_mode = 1
playback_default_blend_time = 0.0
playback_speed = 1.0
anims/smoke = SubResource( 1 )
blend_times = [  ]


